<?xml version="1.0" encoding="UTF-8" standalone="no"?>
<svg
   xmlns:dc="http://purl.org/dc/elements/1.1/"
   xmlns:cc="http://creativecommons.org/ns#"
   xmlns:rdf="http://www.w3.org/1999/02/22-rdf-syntax-ns#"
   xmlns:svg="http://www.w3.org/2000/svg"
   xmlns="http://www.w3.org/2000/svg"
   id="svg2"
   height="5.2506657pt"
   width="18.761879pt"
   version="1.0">
  <metadata
     id="metadata873">
    <rdf:RDF>
      <cc:Work
         rdf:about="">
        <dc:format>image/svg+xml</dc:format>
        <dc:type
           rdf:resource="http://purl.org/dc/dcmitype/StillImage" />
        <dc:title></dc:title>
      </cc:Work>
    </rdf:RDF>
  </metadata>
  <defs
     id="defs4" />
  <path
     d="M 0.50791984,0.50083746 H 24.50792"
     style="fill:none;fill-opacity:0.75;fill-rule:evenodd;stroke:#d47a6a;stroke-width:1.00157475;stroke-linecap:round;stroke-linejoin:miter;stroke-miterlimit:4;stroke-dasharray:none;stroke-opacity:1"
     id="path4098" />
  <path
     d="M 4.5079198,3.5008375 H 20.50792"
     style="fill:none;fill-opacity:0.75;fill-rule:evenodd;stroke:#d47a6a;stroke-width:1px;stroke-linecap:round;stroke-linejoin:miter;stroke-opacity:1"
     id="path4100" />
  <path
     d="M 16.50792,6.5008375 H 8.5079198"
     style="fill:none;fill-opacity:0.75;fill-rule:evenodd;stroke:#d47a6a;stroke-width:1px;stroke-linecap:round;stroke-linejoin:miter;stroke-opacity:1"
     id="path4102" />
</svg>
